…
```{r}
ggplot(data = state_df,
            mapping = aes(x = long, y = lat,
                          group = group)) +
  geom_polygon() 
```

```{r}
##install.packages("usdata")
library(usdata)
state_stats
#> # A tibble: 51 x 24
#>    state abbr   fips pop2010 pop2000 homeownership multiunit
#>    <fct> <fct> <dbl>   <dbl>   <dbl>         <dbl>     <dbl>
#>  1 Alab… AL        1  4.78e6  4.45e6          71.1      15.5
#>  2 Alas… AK        2  7.10e5  6.27e5          64.7      24.6
#>  3 Ariz… AZ        4  6.39e6  5.13e6          67.4      20.7
#>  4 Arka… AR        5  2.92e6  2.67e6          67.7      15.2
#>  5 Cali… CA        6  3.73e7  3.39e7          57.4      30.7
#>  6 Colo… CO        8  5.03e6  4.30e6          67.6      25.6
#>  7 Conn… CT        9  3.57e6  3.41e6          69.2      34.6
#>  8 Dela… DE       10  8.98e5  7.84e5          73.6      17.7
#>  9 Dist… DC       11  6.02e5  5.72e5          43.5      61.7
#> 10 Flor… FL       12  1.88e7  1.60e7          69.7      30  
#> # … with 41 more rows, and 17 more variables: income <dbl>,
#> #   med_income <dbl>, poverty <dbl>, fed_spend <dbl>,
#> #   land_area <dbl>, smoke <dbl>, murder <dbl>,
#> #   robbery <dbl>, agg_assault <dbl>, larceny <dbl>,
#> #   motor_theft <dbl>, soc_sec <dbl>, nuclear <dbl>,
#> #   coal <dbl>, tr_deaths <dbl>, tr_deaths_no_alc <dbl>,
#> #   unempl <dbl>
```
…
