…
2.2.1
```{r}
## install.packages("palmerpenguins")
library(palmerpenguins)
library(tidyverse)
#> ── Attaching packages ─────────────────── tidyverse 1.3.1 ──
#> ✓ ggplot2 3.3.5     ✓ purrr   0.3.4
#> ✓ tibble  3.1.2     ✓ dplyr   1.0.7
#> ✓ tidyr   1.1.3     ✓ stringr 1.4.0
#> ✓ readr   2.0.2     ✓ forcats 0.5.1
#> ── Conflicts ────────────────────── tidyverse_conflicts() ──
#> x dplyr::filter() masks stats::filter()
#> x dplyr::lag()    masks stats::lag()
penguins
#> # A tibble: 344 x 8
#>    species island    bill_length_mm bill_depth_mm
#>    <fct>   <fct>              <dbl>         <dbl>
#>  1 Adelie  Torgersen           39.1          18.7
#>  2 Adelie  Torgersen           39.5          17.4
#>  3 Adelie  Torgersen           40.3          18  
#>  4 Adelie  Torgersen           NA            NA  
#>  5 Adelie  Torgersen           36.7          19.3
#>  6 Adelie  Torgersen           39.3          20.6
#>  7 Adelie  Torgersen           38.9          17.8
#>  8 Adelie  Torgersen           39.2          19.6
#>  9 Adelie  Torgersen           34.1          18.1
#> 10 Adelie  Torgersen           42            20.2
#> # … with 334 more rows, and 4 more variables:
#> #   flipper_length_mm <int>, body_mass_g <int>, sex <fct>,
#> #   year <int>
…
