…
## provide the URL and name it something (in this case, url).
## paste0 pastes together the base URL and the year into a single string:
## this will be useful in a moment
year <- 2017
url <- paste0("https://en.wikipedia.org/wiki/Billboard_Year-End_Hot_100_singles_of_", year)

## convert the html code into something R can read
h <- read_html(url)

## grabs the tables
tab <- h %>% html_nodes("table")
df <- tab[[1]] %>% html_table() %>%
  mutate(year = 2017)
df
#> # A tibble: 100 x 4
#>      No. Title            `Artist(s)`                   year
#>    <int> <chr>            <chr>                        <dbl>
#>  1     1 "\"Shape of You… Ed Sheeran                    2017
#>  2     2 "\"Despacito (R… Luis Fonsi and Daddy Yankee…  2017
#>  3     3 "\"That's What … Bruno Mars                    2017
#>  4     4 "\"Humble\""     Kendrick Lamar                2017
#>  5     5 "\"Something Ju… The Chainsmokers and Coldpl…  2017
#>  6     6 "\"Bad and Bouj… Migos featuring Lil Uzi Vert  2017
#>  7     7 "\"Closer\""     The Chainsmokers featuring …  2017
#>  8     8 "\"Body Like a … Sam Hunt                      2017
#>  9     9 "\"Believer\""   Imagine Dragons               2017
#> 10    10 "\"Congratulati… Post Malone featuring Quavo   2017
#> # … with 90 more rows
…
  ## same code as before, replacing 2017 with year.
  url <- paste0("https://en.wikipedia.org/wiki/Billboard_Year-End_Hot_100_singles_of_", year)
  
  h <- read_html(url)
  
  tab <- h %>% html_nodes("table")
  df <- tab[[1]] %>% html_table() %>%
    mutate(year = year)
  
  ## tell our function to return the dataframe `df`
  return(df) 
}

get_wiki_100(year = 2017)
#> # A tibble: 100 x 4
#>      No. Title            `Artist(s)`                   year
#>    <int> <chr>            <chr>                        <dbl>
#>  1     1 "\"Shape of You… Ed Sheeran                    2017
#>  2     2 "\"Despacito (R… Luis Fonsi and Daddy Yankee…  2017
#>  3     3 "\"That's What … Bruno Mars                    2017
#>  4     4 "\"Humble\""     Kendrick Lamar                2017
#>  5     5 "\"Something Ju… The Chainsmokers and Coldpl…  2017
#>  6     6 "\"Bad and Bouj… Migos featuring Lil Uzi Vert  2017
#>  7     7 "\"Closer\""     The Chainsmokers featuring …  2017
#>  8     8 "\"Body Like a … Sam Hunt                      2017
#>  9     9 "\"Believer\""   Imagine Dragons               2017
#> 10    10 "\"Congratulati… Post Malone featuring Quavo   2017
#> # … with 90 more rows
…
df_all <- map(year_list, get_wiki_100)
df_all ## a list of data frames, one for each year
#> [[1]]
#> # A tibble: 100 x 4
#>      No. Title            `Artist(s)`                   year
#>    <int> <chr>            <chr>                        <dbl>
#>  1     1 "\"Shape of You… Ed Sheeran                    2017
#>  2     2 "\"Despacito (R… Luis Fonsi and Daddy Yankee…  2017
#>  3     3 "\"That's What … Bruno Mars                    2017
#>  4     4 "\"Humble\""     Kendrick Lamar                2017
#>  5     5 "\"Something Ju… The Chainsmokers and Coldpl…  2017
#>  6     6 "\"Bad and Bouj… Migos featuring Lil Uzi Vert  2017
#>  7     7 "\"Closer\""     The Chainsmokers featuring …  2017
#>  8     8 "\"Body Like a … Sam Hunt                      2017
#>  9     9 "\"Believer\""   Imagine Dragons               2017
#> 10    10 "\"Congratulati… Post Malone featuring Quavo   2017
#> # … with 90 more rows
#> 
#> [[2]]
#> # A tibble: 100 x 4
#>      No. Title           `Artist(s)`                    year
#>    <int> <chr>           <chr>                         <dbl>
#>  1     1 "\"God's Plan\… Drake                          2018
#>  2     2 "\"Perfect\""   Ed Sheeran                     2018
#>  3     3 "\"Meant to Be… Bebe Rexha featuring Florida…  2018
#>  4     4 "\"Havana\""    Camila Cabello featuring You…  2018
#>  5     5 "\"Rockstar\""  Post Malone featuring 21 Sav…  2018
#>  6     6 "\"Psycho\""    Post Malone featuring Ty Dol…  2018
#>  7     7 "\"I Like It\"" Cardi B, Bad Bunny and J Bal…  2018
#>  8     8 "\"The Middle\… Zedd, Maren Morris and Grey    2018
#>  9     9 "\"In My Feeli… Drake                          2018
#> 10    10 "\"Girls Like … Maroon 5 featuring Cardi B     2018
#> # … with 90 more rows
#> 
#> [[3]]
#> # A tibble: 100 x 4
#>      No. Title            `Artist(s)`                   year
#>    <int> <chr>            <chr>                        <dbl>
#>  1     1 "\"Old Town Roa… Lil Nas X featuring Billy R…  2019
#>  2     2 "\"Sunflower\""  Post Malone and Swae Lee      2019
#>  3     3 "\"Without Me\"" Halsey                        2019
#>  4     4 "\"Bad Guy\""    Billie Eilish                 2019
#>  5     5 "\"Wow\""        Post Malone                   2019
#>  6     6 "\"Happier\""    Marshmello and Bastille       2019
#>  7     7 "\"7 Rings\""    Ariana Grande                 2019
#>  8     8 "\"Talk\""       Khalid                        2019
#>  9     9 "\"Sicko Mode\"" Travis Scott                  2019
#> 10    10 "\"Sucker\""     Jonas Brothers                2019
#> # … with 90 more rows
#> 
#> [[4]]
#> # A tibble: 100 x 4
#>      No. Title                `Artist(s)`               year
#>    <int> <chr>                <chr>                    <dbl>
#>  1     1 "\"Blinding Lights\… The Weeknd                2020
#>  2     2 "\"Circles\""        Post Malone               2020
#>  3     3 "\"The Box\""        Roddy Ricch               2020
#>  4     4 "\"Don't Start Now\… Dua Lipa                  2020
#>  5     5 "\"Rockstar\""       DaBaby featuring Roddy …  2020
#>  6     6 "\"Adore You\""      Harry Styles              2020
#>  7     7 "\"Life Is Good\""   Future featuring Drake    2020
#>  8     8 "\"Memories\""       Maroon 5                  2020
#>  9     9 "\"The Bones\""      Maren Morris              2020
#> 10    10 "\"Someone You Love… Lewis Capaldi             2020
#> # … with 90 more rows
#> 
#> [[5]]
#> # A tibble: 100 x 4
#>      No. Title              `Artist(s)`                 year
#>    <int> <chr>              <chr>                      <dbl>
#>  1     1 "\"Levitating\""   Dua Lipa                    2021
#>  2     2 "\"Save Your Tear… The Weeknd and Ariana Gra…  2021
#>  3     3 "\"Blinding Light… The Weeknd                  2021
#>  4     4 "\"Mood\""         24kGoldn featuring Iann D…  2021
#>  5     5 "\"Good 4 U\""     Olivia Rodrigo              2021
#>  6     6 "\"Kiss Me More\"" Doja Cat featuring SZA      2021
#>  7     7 "\"Leave the Door… Silk Sonic (Bruno Mars an…  2021
#>  8     8 "\"Drivers Licens… Olivia Rodrigo              2021
#>  9     9 "\"Montero (Call … Lil Nas X                   2021
#> 10    10 "\"Peaches\""      Justin Bieber featuring D…  2021
#> # … with 90 more rows
…
5.2.1
```{r}
library(tidyverse)
hpi_df <- read_csv("/Users/gracewysocki/Desktop/Data Vis/data/hpi-tidy.csv")
#> Rows: 151 Columns: 11
#> ── Column specification ────────────────────────────────────
#> Delimiter: ","
#> chr (3): Country, GovernanceRank, Region
#> dbl (8): HPIRank, LifeExpectancy, Wellbeing, HappyLifeYe...
#> 
#> ℹ Use `spec()` to retrieve the full column specification for this data.
#> ℹ Specify the column types or set `show_col_types = FALSE` to quiet this message.
hpi_df
#> # A tibble: 151 x 11
#>    HPIRank Country   LifeExpectancy Wellbeing HappyLifeYears
#>      <dbl> <chr>              <dbl>     <dbl>          <dbl>
#>  1     109 Afghanis…           48.7      4.76           29.0
#>  2      18 Albania             76.9      5.27           48.8
#>  3      26 Algeria             73.1      5.24           46.2
#>  4     127 Angola              51.1      4.21           28.2
#>  5      17 Argentina           75.9      6.44           55.0
#>  6      53 Armenia             74.2      4.37           41.9
#>  7      76 Australia           81.9      7.41           65.5
#>  8      48 Austria             80.9      7.35           64.3
#>  9      80 Azerbaij…           70.7      4.22           39.1
#> 10     146 Bahrain             75.1      4.55           43.5
#> # … with 141 more rows, and 6 more variables:
#> #   Footprint <dbl>, HappyPlanetIndex <dbl>,
#> #   Population <dbl>, GDPcapita <dbl>,
#> #   GovernanceRank <chr>, Region <chr>
…
