Tidyverse Review
…
 Use `spec()` to retrieve the full column specification for this data.
 Specify the column types or set `show_col_types = FALSE` to quiet this message.

#> Rows: 151 Columns: 11
#>  Column specification 
#> Delimiter: ","
#> chr (3): Country, GovernanceRank, Region
#> dbl (8): HPIRank, LifeExpectancy, Wellbeing, HappyLifeYe...
#> 
#>  Use `spec()` to retrieve the full column specification for this data.
#>  Specify the column types or set `show_col_types = FALSE` to quiet this message.
hpi_df

#> # A tibble: 151 x 11
#>    HPIRank Country   LifeExpectancy Wellbeing HappyLifeYears
#>      <dbl> <chr>              <dbl>     <dbl>          <dbl>
#>  1     109 Afghanis           48.7      4.76           29.0
#>  2      18 Albania             76.9      5.27           48.8
#>  3      26 Algeria             73.1      5.24           46.2
#>  4     127 Angola              51.1      4.21           28.2
#>  5      17 Argentina           75.9      6.44           55.0
#>  6      53 Armenia             74.2      4.37           41.9
#>  7      76 Australia           81.9      7.41           65.5
#>  8      48 Austria             80.9      7.35           64.3
#>  9      80 Azerbaij           70.7      4.22           39.1
#> 10     146 Bahrain             75.1      4.55           43.5
#> #  with 141 more rows, and 6 more variables:
#> #   Footprint <dbl>, HappyPlanetIndex <dbl>,
#> #   Population <dbl>, GDPcapita <dbl>,
#> #   GovernanceRank <chr>, Region <chr>
…
